<svg xmlns="http://www.w3.org/2000/svg" width="33" height="33" viewBox="0 0 33 33">
    <path fill="#009AE3" fill-rule="nonzero" d="M16.375 33.009c9.043 0 16.374-7.39 16.374-16.505C32.75 7.39 25.42 0 16.375 0 7.33 0 0 7.39 0 16.504 0 25.62 7.331 33.01 16.375 33.01zm0-1.376c-8.29 0-15.01-6.773-15.01-15.129 0-8.355 6.72-15.129 15.01-15.129s15.01 6.774 15.01 15.13c0 8.355-6.72 15.128-15.01 15.128zm-.683-26.82v11.691a.69.69 0 0 0 .2.487l7.505 7.564a.678.678 0 0 0 .965 0 .692.692 0 0 0 0-.972l-7.505-7.565.2.486V4.814a.685.685 0 0 0-.682-.688.685.685 0 0 0-.683.688z"/>
</svg>
